<?xml version="1.0" encoding="utf-8"?>
<!-- Generator: Adobe Illustrator 19.1.0, SVG Export Plug-In . SVG Version: 6.00 Build 0)  -->
<svg version="1.1" id="Calque_1" xmlns="http://www.w3.org/2000/svg" xmlns:xlink="http://www.w3.org/1999/xlink" x="0px" y="0px"
	 viewBox="0 0 200 121.6" style="enable-background:new 0 0 200 121.6;" xml:space="preserve">
<style type="text/css">
	.st0{fill:#F4F5F6;}
	.st1{fill:#D8DFE6;}
</style>
<g id="AVcAXt_1_">
	<g>
		<path class="st0" d="M82.6,32.6c0.1-0.5,0.6-0.7,1-0.9c14.7-8.6,29.5-17.1,44.2-25.7c1-0.6,1.3-0.4,1.9,0.5
			c21.5,35.8,43.1,71.5,64.6,107.3c0.2,0.3,0.5,0.6,0.5,1.3c-7.1-1.4-14.2-2.8-21.3-4.2c-0.9,0.6-1.8,0.1-2.7-0.1
			c-22.9-4.6-45.8-9.2-68.7-13.7c-17.6-3.5-35.1-7-52.7-10.5c-0.8-0.2-1.7-0.2-2.2-1C41.1,84.5,35,83.3,28.9,82
			c-7.4-1.5-14.9-3-22.3-4.5c-0.3-0.1-0.6-0.1-1.2-0.3c3-1.7,5.7-3.3,8.4-4.9c13.7-8,27.4-15.9,41.1-23.9c0.9-0.5,1.6-0.6,2.6-0.1
			c8.2,4,16.4,7.9,24.6,11.8c0.8,0,1.6,0.3,2.4,0.6c11,5.5,22,10.8,33,16.2c12.4,6.1,24.8,12.1,37.3,18.2
			c11.6,5.6,23.2,11.3,34.7,16.9c1,0.5,2,1,2.9,1.6c-4.1-2.7-7.9-5.7-11.9-8.6c-16.4-12-32.7-24.1-49.1-36.1
			c-14.5-10.7-29-21.3-43.5-32.1C86.1,35.5,84.2,34.3,82.6,32.6z"/>
		<path class="st1" d="M82.6,32.6c2.7,1.4,5,3.4,7.4,5.2c23,16.9,46,33.8,68.9,50.7c11.3,8.3,22.7,16.7,34,25.1
			c0.3,0.2,0.7,0.3,0.8,1c-37.3-18.2-74.5-36.4-111.7-54.5c0.8-0.3,0.4-1,0.4-1.5c0-8,0-16.1,0-24.1C82.5,33.9,82.6,33.3,82.6,32.6z
			"/>
	</g>
</g>
</svg>
