<?xml version="1.0" encoding="UTF-8" standalone="no"?>
<svg width="168px" height="189px" viewBox="0 0 168 189" version="1.1" xmlns="http://www.w3.org/2000/svg" xmlns:xlink="http://www.w3.org/1999/xlink" xmlns:sketch="http://www.bohemiancoding.com/sketch/ns">
    <!-- Generator: Sketch 3.5.2 (25235) - http://www.bohemiancoding.com/sketch -->
    <title>Illustration</title>
    <desc>Created with Sketch.</desc>
    <defs></defs>
    <g id="Home" stroke="none" stroke-width="1" fill="none" fill-rule="evenodd" sketch:type="MSPage">
        <g id="Desktop" sketch:type="MSArtboardGroup" transform="translate(-221.000000, -1468.000000)" stroke-width="2" fill="#FFFFFF">
            <g id="Content" sketch:type="MSLayerGroup" transform="translate(139.000000, 1348.000000)">
                <g id="Article-1" transform="translate(83.000000, 121.000000)" sketch:type="MSShapeGroup">
                    <g id="Illustration">
                        <g id="Gugus-Copy-3" transform="translate(53.812674, 0.000000)" stroke="#969CA8">
                            <ellipse id="Oval-102" cx="31.154706" cy="24.1962982" rx="23.60205" ry="24.1962982"></ellipse>
                            <path d="M7.79539606,61.4211922 C-5.28057451,73.0634456 0.836044588,101.859923 6.39783112,112.342392 C14.558937,127.723877 45.2407038,128.605945 54.9249706,112.342392 C64.6092375,96.0788386 65.6784786,68.1505044 54.9249691,61.4211922 C45.9159914,55.7835701 22.3384223,48.4727387 7.79539606,61.4211922 Z" id="Path-132"></path>
                        </g>
                        <g id="Gugus-Copy-4" transform="translate(0.000000, 25.164150)" stroke="#969CA8">
                            <ellipse id="Oval-102" cx="26.5047499" cy="20.6325024" rx="20.079356" ry="20.6325024"></ellipse>
                            <path d="M6.63190411,52.37466 C-4.49242906,62.3021629 0.711261814,86.8572986 5.44293095,95.7958377 C12.3859613,108.911833 38.48836,109.663984 46.7272138,95.7958382 C54.9660677,81.9276918 55.8757206,58.1128332 46.7272125,52.37466 C39.0628584,47.5673853 19.0043294,41.3333431 6.63190411,52.37466 Z" id="Path-132"></path>
                        </g>
                        <g id="Gugus-Copy" transform="translate(41.539608, 39.681929)" stroke="#9FB8C7">
                            <ellipse id="Oval-102" cx="29.2947236" cy="22.6957526" rx="22.1929724" ry="22.6957526"></ellipse>
                            <path d="M7.32999928,57.612126 C-4.96531633,68.5323792 0.786131479,95.5430284 6.01587105,105.375422 C13.6897467,119.803016 42.5397663,120.630383 51.6458679,105.375422 C60.7519696,90.120461 61.7573754,63.9241165 51.6458664,57.612126 C43.1747382,52.3241239 21.0047852,45.4666774 7.32999928,57.612126 Z" id="Path-132"></path>
                        </g>
                        <g id="Gugus-Copy-2" transform="translate(102.904938, 16.453483)" stroke="#969CA8">
                            <ellipse id="Oval-102" cx="31.154706" cy="24.1962982" rx="23.60205" ry="24.1962982"></ellipse>
                            <path d="M7.79539606,61.4211922 C-5.28057451,73.0634456 0.836044588,101.859923 6.39783112,112.342392 C14.558937,127.723877 45.2407038,128.605945 54.9249706,112.342392 C64.6092375,96.0788386 65.6784786,68.1505044 54.9249691,61.4211922 C45.9159914,55.7835701 22.3384223,48.4727387 7.79539606,61.4211922 Z" id="Path-132"></path>
                        </g>
                        <g id="Gugus" transform="translate(68.917986, 61.942523)" stroke="#3E3D44">
                            <ellipse id="Oval-102" cx="31.154706" cy="24.1962982" rx="23.60205" ry="24.1962982"></ellipse>
                            <path d="M7.79539606,61.4211922 C-5.28057451,73.0634456 0.836044588,101.859923 6.39783112,112.342392 C14.558937,127.723877 45.2407038,128.605945 54.9249706,112.342392 C64.6092375,96.0788386 65.6784786,68.1505044 54.9249691,61.4211922 C45.9159914,55.7835701 22.3384223,48.4727387 7.79539606,61.4211922 Z" id="Path-132"></path>
                        </g>
                    </g>
                </g>
            </g>
        </g>
    </g>
</svg>