<?xml version="1.0" encoding="UTF-8" standalone="no"?>
<svg width="237px" height="131px" viewBox="0 0 237 131" version="1.1" xmlns="http://www.w3.org/2000/svg" xmlns:xlink="http://www.w3.org/1999/xlink" xmlns:sketch="http://www.bohemiancoding.com/sketch/ns">
    <!-- Generator: Sketch 3.3.3 (12072) - http://www.bohemiancoding.com/sketch -->
    <title>Illustration Recrutage</title>
    <desc>Created with Sketch.</desc>
    <defs></defs>
    <g id="Home-Pro" stroke="none" stroke-width="1" fill="none" fill-rule="evenodd" sketch:type="MSPage">
        <g id="Desktop" sketch:type="MSArtboardGroup" transform="translate(-538.000000, -997.000000)" stroke-width="2">
            <g id="Content" sketch:type="MSLayerGroup" transform="translate(0.000000, 578.000000)">
                <g id="Article-2" transform="translate(214.000000, 378.000000)" sketch:type="MSShapeGroup">
                    <g id="Illustration-Recrutage" transform="translate(325.000000, 42.000000)">
                        <ellipse id="Oval-102" stroke="#FFFFFF" cx="33" cy="25" rx="25" ry="25"></ellipse>
                        <ellipse id="Oval-102-Copy" stroke="#9FB8C7" cx="117.15092" cy="25" rx="25" ry="25"></ellipse>
                        <path d="M8.25711755,63.4387199 C-5.59334306,75.4676812 0.88556353,105.220659 6.77677481,116.051313 C15.4212632,131.943708 47.9203118,132.855075 58.178178,116.051313 C68.4360442,99.2475512 69.5686165,70.3915523 58.1781763,63.4387199 C48.6355967,57.6138391 23.6615276,50.0601719 8.25711755,63.4387199 Z" id="Path-132" stroke="#FFFFFF"></path>
                        <path d="M92.2571176,63.4387199 C78.4066569,75.4676812 84.8855635,105.220659 90.7767748,116.051313 C99.4212632,131.943708 131.920312,132.855075 142.178178,116.051313 C152.436044,99.2475512 153.568616,70.3915523 142.178176,63.4387199 C132.635597,57.6138391 107.661528,50.0601719 92.2571176,63.4387199 Z" id="Path-132-Copy" stroke="#9FB8C7"></path>
                        <ellipse id="Oval-102-Copy-2" stroke="#969CA8" cx="201.15092" cy="25" rx="25" ry="25"></ellipse>
                        <path d="M176.257118,63.4387199 C162.406657,75.4676812 168.885564,105.220659 174.776775,116.051313 C183.421263,131.943708 215.920312,132.855075 226.178178,116.051313 C236.436044,99.2475512 237.568616,70.3915523 226.178176,63.4387199 C216.635597,57.6138391 191.661528,50.0601719 176.257118,63.4387199 Z" id="Path-132-Copy-2" stroke="#969CA8"></path>
                    </g>
                </g>
            </g>
        </g>
    </g>
</svg>