<?xml version="1.0" encoding="utf-8"?>
<!-- Generator: Adobe Illustrator 19.1.0, SVG Export Plug-In . SVG Version: 6.00 Build 0)  -->
<svg version="1.1" id="Logo" xmlns="http://www.w3.org/2000/svg" xmlns:xlink="http://www.w3.org/1999/xlink" x="0px" y="0px"
	 viewBox="150 -150 500 500" style="enable-background:new 150 -150 500 500;" xml:space="preserve">
<style type="text/css">
	.st0{fill:#3F3D46;stroke:#424242;stroke-width:6;stroke-linecap:round;stroke-linejoin:round;stroke-miterlimit:10;}
	.st1{fill:#FFFFFF;}
</style>
<path class="st0" d="M487.4,10.2"/>
<path class="st0" d="M487.4,110.2"/>
<path class="st0" d="M328.2,10.2"/>
<path class="st0" d="M328.2,110.2"/>
<circle class="st1" cx="303.5" cy="-79.2" r="66.5"/>
<circle class="st1" cx="496.5" cy="-79.2" r="66.5"/>
<circle class="st1" cx="303.5" cy="99.5" r="66.5"/>
<circle class="st1" cx="496.5" cy="99.5" r="66.5"/>
<circle class="st1" cx="496.5" cy="279.7" r="66.5"/>
<g>
	<path class="st1" d="M332.1,344.3l-8.5-8.9c-5.3,3.5-10.9,6.2-16.8,8c-5.9,1.8-12,2.7-18.1,2.7c-7,0-13.2-1.1-18.7-3.3
		c-5.5-2.2-10.1-5.2-13.9-8.9c-3.7-3.7-6.6-7.9-8.6-12.6s-3-9.6-3-14.7c0-3.9,0.5-7.5,1.6-10.8c1.1-3.3,2.6-6.4,4.4-9.1
		c1.9-2.8,4-5.4,6.4-7.8s5-4.6,7.8-6.7c-2.2-2.7-4-5.1-5.6-7.2c-1.6-2.2-2.8-4.3-3.8-6.4c-1-2.1-1.7-4.2-2.1-6.2
		c-0.4-2-0.6-4.1-0.6-6.4c0-4.9,0.9-9.4,2.7-13.3s4.3-7.3,7.6-10c3.3-2.8,7.1-4.9,11.6-6.3s9.3-2.2,14.5-2.2c4.5,0,8.9,0.6,13.2,1.7
		c4.3,1.1,8.2,3,11.5,5.4c3.3,2.5,6,5.6,8.1,9.2c2.1,3.7,3.1,8.1,3.1,13.1c0,6.9-1.8,12.9-5.4,18.2c-3.6,5.3-8.3,10.1-14.1,14.4
		l20.1,21.4c1.6-3.6,2.8-7.6,3.7-11.9s1.4-9,1.4-14H354c-0.1,8.9-1.2,17-3.3,24.2c-2.1,7.2-4.8,13.7-8.3,19.5l27.7,29h-38V344.3z
		 M291.7,323.4c5.6,0,11-1.6,16.3-4.9l-25.5-27.2c-3.1,2.4-5.6,4.8-7.4,7.2c-1.8,2.4-2.7,5.1-2.7,8.1c0,1.9,0.4,3.9,1.3,5.9
		c0.8,2,2.1,3.8,3.7,5.3c1.6,1.6,3.6,2.9,6.1,3.9C285.8,322.9,288.6,323.4,291.7,323.4z M278.9,244.8c0,1.9,0.6,3.7,1.8,5.3
		c1.2,1.6,3.4,4,6.5,7.2c3.7-2.4,6.5-4.6,8.3-6.5s2.7-4.2,2.7-6.9c0-2.7-0.8-4.8-2.5-6.3c-1.7-1.6-3.9-2.4-6.7-2.4
		c-3.1,0-5.6,0.9-7.4,2.7C279.8,239.8,278.9,242.1,278.9,244.8z"/>
</g>
</svg>
